@startuml

'scale 2

'left to right direction

:user: -left-> (dummyLeft) 
:user: -right-> (dummyRight) 
:user: -up-> (dummyUp)
:user: -down-> (dummyDown)

:other_user: --> (vertically_direction)
:other_user: -> (horizontal_direction)

@enduml